<?xml version="1.0" encoding="UTF-8" standalone="no"?>
<svg
   xmlns:dc="http://purl.org/dc/elements/1.1/"
   xmlns:cc="http://creativecommons.org/ns#"
   xmlns:rdf="http://www.w3.org/1999/02/22-rdf-syntax-ns#"
   xmlns:svg="http://www.w3.org/2000/svg"
   xmlns="http://www.w3.org/2000/svg"
   xmlns:sodipodi="http://sodipodi.sourceforge.net/DTD/sodipodi-0.dtd"
   xmlns:inkscape="http://www.inkscape.org/namespaces/inkscape"
   inkscape:version="1.0 (4035a4f, 2020-05-01)"
   sodipodi:docname="indicator-prayer-times_3.svg"
   id="svg70"
   version="1.1"
   height="50"
   width="50">
  <metadata
     id="metadata76">
    <rdf:RDF>
      <cc:Work
         rdf:about="">
        <dc:format>image/svg+xml</dc:format>
        <dc:type
           rdf:resource="http://purl.org/dc/dcmitype/StillImage" />
        <dc:title></dc:title>
      </cc:Work>
    </rdf:RDF>
  </metadata>
  <defs
     id="defs74" />
  <sodipodi:namedview
     inkscape:current-layer="g68"
     inkscape:window-maximized="1"
     inkscape:window-y="27"
     inkscape:window-x="69"
     inkscape:cy="25"
     inkscape:cx="14.467565"
     inkscape:zoom="10.62"
     showgrid="false"
     id="namedview72"
     inkscape:window-height="711"
     inkscape:window-width="1297"
     inkscape:pageshadow="2"
     inkscape:pageopacity="0"
     guidetolerance="10"
     gridtolerance="10"
     objecttolerance="10"
     borderopacity="1"
     bordercolor="#666666"
     pagecolor="#ffffff" />
  <!-- Created with SVG-edit - http://svg-edit.googlecode.com/ -->
  <g
     id="g68">
    <title
       id="title62">Layer 1</title>
    <circle
       id="circle64"
       cx="25"
       cy="25"
       r="16"
       fill="#dfdbd2"
       stroke="#504f48"
       stroke-width="3" />
    <path
       id="path66"
       d="m 12.836215,16 a 4.8362155,9 0 0 0 0,18 v -0.84375 a 5.4407427,10.125 0 0 0 0,-16.3125 z"
       fill="#504f48"
       stroke-width="0" />
  </g>
</svg>
